[gd_scene load_steps=3 format=3 uid="uid://dq6hrbd6ev4ls"]

[ext_resource type="Script" path="res://graph_node_renderer/settings/library_group_paths_editor.gd" id="1_swcyp"]
[ext_resource type="Texture2D" uid="uid://drxi5ks3mqbnk" path="res://graph_node_renderer/textures/add_icon.svg" id="2_v1g1h"]

[node name="LibraryGroupPathsEditor" type="PanelContainer"]
offset_right = 272.0
offset_bottom = 179.0
size_flags_vertical = 3
script = ExtResource("1_swcyp")

[node name="MarginContainer" type="MarginContainer" parent="."]
layout_mode = 2
theme_override_constants/margin_left = 4
theme_override_constants/margin_top = 4
theme_override_constants/margin_right = 4
theme_override_constants/margin_bottom = 4

[node name="VBoxContainer" type="VBoxContainer" parent="MarginContainer"]
layout_mode = 2

[node name="PanelContainer" type="PanelContainer" parent="MarginContainer/VBoxContainer"]
layout_mode = 2
size_flags_vertical = 3

[node name="MarginContainer" type="MarginContainer" parent="MarginContainer/VBoxContainer/PanelContainer"]
layout_mode = 2
theme_override_constants/margin_left = 8
theme_override_constants/margin_right = 8

[node name="ScrollContainer" type="ScrollContainer" parent="MarginContainer/VBoxContainer/PanelContainer/MarginContainer"]
layout_mode = 2
horizontal_scroll_mode = 0

[node name="PathsContainer" type="VBoxContainer" parent="MarginContainer/VBoxContainer/PanelContainer/MarginContainer/ScrollContainer"]
unique_name_in_owner = true
layout_mode = 2
size_flags_horizontal = 3
size_flags_vertical = 3

[node name="CenterContainer" type="CenterContainer" parent="MarginContainer/VBoxContainer"]
layout_mode = 2

[node name="AddButton" type="Button" parent="MarginContainer/VBoxContainer/CenterContainer"]
unique_name_in_owner = true
layout_mode = 2
text = "Add"
icon = ExtResource("2_v1g1h")

[node name="Label" type="Label" parent="."]
layout_mode = 2

[node name="FolderDialog" type="FileDialog" parent="."]
unique_name_in_owner = true
title = "Open a Directory"
initial_position = 2
size = Vector2i(760, 500)
ok_button_text = "Select Current Folder"
file_mode = 2
access = 2
